module github.com/LordMathis/hugo-theme-nightfall

go 1.20

require (
	wangchucheng.com/hugo-eureka v0.9.3 // indirect
	wangchucheng.com/hugo-marble/search v0.1.0 // indirect
	wangchucheng.com/hugo-marble/utils v0.1.0-alpha.1 // indirect
)
